{
	"id": "4d41a5b2-249a-4213-9f90-c002d7099064",
	"name": "TopMorale LOCAL",
	"values": [
		{
			"key": "API_URL",
			"value": "http://localhost:5000",
			"type": "text",
			"description": "",
			"enabled": true
		}
	],
	"_postman_variable_scope": "environment",
	"_postman_exported_at": "2019-04-17T12:43:58.980Z",
	"_postman_exported_using": "Postman/7.0.7"
}